…
names(Alzheimer)

## [1] "Hallucination" "Activity"      "Aggression"    "Agitation"    
## [5] "Diurnal"       "Affective"

# "Hallucination","Activity","Aggression" ,"Agitation","Diurnal","Affective"    

Alzheimer %>% 
  unite(combo, Hallucination:Affective, sep = "") %>% 
  group_by(combo) %>% 
  summarize(N = n()) %>% 
  arrange(desc(N))

## # A tibble: 39 x 2
##    combo      N
##    <chr>  <int>
##  1 010001    35
##  2 000001    25
##  3 010101    24
##  4 010000    20
##  5 000000    18
##  6 011101    14
##  7 010011    11
##  8 010111    11
##  9 000101     9
## 10 011001     9
## # ... with 29 more rows
…
