…
Examine the relocation data

 deer %>% 
  group_by(burst_) %>% 
  summarize(N = n())

## # A tibble: 35 x 2
## # Groups:   [?]
##    burst_     N
##  *  <dbl> <int>
##  1      1    12
##  2      2    80
##  3      3     1
##  4      4     3
##  5      5    15
##  6      6    14
##  7      7    27
##  8      8    70
##  9      9    54
## 10     10     6
## # ... with 25 more rows
…
