Occupancy modelling
…
agouti 

## # A tibble: 50 x 10
##    Sites    S01   S02   S03   S04   S05   S06   S07   S08   S09
##    <chr>  <dbl> <dbl> <dbl> <dbl> <dbl> <dbl> <dbl> <dbl> <dbl>
##  1 OCVP1      1     1     1     0    NA    NA    NA    NA    NA
##  2 OCVP2      0     0     0     0    NA    NA    NA    NA    NA
##  3 OCVP3     NA    NA    NA     0     0     0     0     0     0
##  4 OCVP4      0     0    NA    NA    NA    NA    NA    NA    NA
##  5 OCVP5      0     0     0     0    NA    NA    NA    NA    NA
##  6 OCVP6      0     0     0     0    NA    NA    NA    NA    NA
##  7 OCVP7      1    NA    NA    NA    NA    NA    NA    NA    NA
##  8 OCVP8      1     1     1     1    NA    NA    NA    NA    NA
##  9 OCVP9     NA    NA    NA     0     1     0     1     0     0
## 10 OCVP10     0     0     0     0    NA    NA    NA    NA    NA
## # ... with 40 more rows
…
